{
  "name": "Tutorial_Deployment",
  "endpoints": [
    {
      "modelRef": "LMEZdhYt",
      "useJava": true,
      "testQueries": [
        {
          "q": {
            "features": {
              "pages_visited_avg": 4,
              "age_first_order": 20
            }
          }
        },
        {
          "q": {
            "features": {
              "campaign": "False"
            }
          }
        },
        {
          "q": {
            "features": {
              "campaign": "True"
            }
          }
        }
      ],
      "enrichMapping": [],
      "healthCheckQueries": [],
      "id": "High_Revenue_Customers",
      "type": "STD_PREDICTION"
    }
  ],
  "publicAccess": true,
  "authRealm": {
    "queryKeys": []
  },
  "tags": [],
  "customFields": {},
  "checklists": {
    "checklists": []
  }
}